[
  {
    "id": 1,
    "Reward": "Demo",
    "Location": "Demo cafe",
    "Type": "Activity",
    "Points": 480,
    "Description": "This is a demo reward.",
    "Availability": "*Please note this reward is only available for demo puproses"
  }
]
